mc15_13TeV.303241.MadGraphPythia8EvtGen_A14NNPDF23LO_RS_G_WW_lvqq_c10_m2400.merge.AOD.e4175_s2608_r6869_r6282/
mc15_13TeV.303228.MadGraphPythia8EvtGen_A14NNPDF23LO_RS_G_WW_lvqq_c10_m0900.merge.AOD.e4175_s2608_r6869_r6282/
mc15_13TeV.303246.MadGraphPythia8EvtGen_A14NNPDF23LO_RS_G_WW_lvqq_c10_m4000.merge.AOD.e4175_s2608_r6869_r6282/
mc15_13TeV.303240.MadGraphPythia8EvtGen_A14NNPDF23LO_RS_G_WW_lvqq_c10_m2200.merge.AOD.e4175_s2608_r6869_r6282/
mc15_13TeV.303248.MadGraphPythia8EvtGen_A14NNPDF23LO_RS_G_WW_lvqq_c10_m5000.merge.AOD.e4175_s2608_r6869_r6282/
mc15_13TeV.303243.MadGraphPythia8EvtGen_A14NNPDF23LO_RS_G_WW_lvqq_c10_m2800.merge.AOD.e4175_s2608_r6869_r6282/
mc15_13TeV.303227.MadGraphPythia8EvtGen_A14NNPDF23LO_RS_G_WW_lvqq_c10_m0800.merge.AOD.e4175_s2608_r6869_r6282/
mc15_13TeV.303247.MadGraphPythia8EvtGen_A14NNPDF23LO_RS_G_WW_lvqq_c10_m4500.merge.AOD.e4175_s2608_r6869_r6282/
mc15_13TeV.303236.MadGraphPythia8EvtGen_A14NNPDF23LO_RS_G_WW_lvqq_c10_m1700.merge.AOD.e4175_s2608_r6869_r6282/
mc15_13TeV.303244.MadGraphPythia8EvtGen_A14NNPDF23LO_RS_G_WW_lvqq_c10_m3000.merge.AOD.e4175_s2608_r6869_r6282/
mc15_13TeV.303238.MadGraphPythia8EvtGen_A14NNPDF23LO_RS_G_WW_lvqq_c10_m1900.merge.AOD.e4175_s2608_r6869_r6282/
mc15_13TeV.303232.MadGraphPythia8EvtGen_A14NNPDF23LO_RS_G_WW_lvqq_c10_m1300.merge.AOD.e4175_s2608_r6869_r6282/
mc15_13TeV.303230.MadGraphPythia8EvtGen_A14NNPDF23LO_RS_G_WW_lvqq_c10_m1100.merge.AOD.e4175_s2608_r6869_r6282/
mc15_13TeV.303242.MadGraphPythia8EvtGen_A14NNPDF23LO_RS_G_WW_lvqq_c10_m2600.merge.AOD.e4175_s2608_r6869_r6282/
mc15_13TeV.303231.MadGraphPythia8EvtGen_A14NNPDF23LO_RS_G_WW_lvqq_c10_m1200.merge.AOD.e4175_s2608_r6869_r6282/
mc15_13TeV.303233.MadGraphPythia8EvtGen_A14NNPDF23LO_RS_G_WW_lvqq_c10_m1400.merge.AOD.e4175_s2608_r6869_r6282/
mc15_13TeV.303234.MadGraphPythia8EvtGen_A14NNPDF23LO_RS_G_WW_lvqq_c10_m1500.merge.AOD.e4175_s2608_r6869_r6282/
mc15_13TeV.303237.MadGraphPythia8EvtGen_A14NNPDF23LO_RS_G_WW_lvqq_c10_m1800.merge.AOD.e4175_s2608_r6869_r6282/
mc15_13TeV.303235.MadGraphPythia8EvtGen_A14NNPDF23LO_RS_G_WW_lvqq_c10_m1600.merge.AOD.e4175_s2608_r6869_r6282/
mc15_13TeV.303229.MadGraphPythia8EvtGen_A14NNPDF23LO_RS_G_WW_lvqq_c10_m1000.merge.AOD.e4175_s2608_r6869_r6282/
mc15_13TeV.303245.MadGraphPythia8EvtGen_A14NNPDF23LO_RS_G_WW_lvqq_c10_m3500.merge.AOD.e4175_s2608_r6869_r6282/
mc15_13TeV.303239.MadGraphPythia8EvtGen_A14NNPDF23LO_RS_G_WW_lvqq_c10_m2000.merge.AOD.e4175_s2608_r6869_r6282/
mc15_13TeV.341057.PowhegPythia8EvtGen_CT10_AZNLOCTEQ6L1_VBF800NWA_WWlvqq_15_5.merge.AOD.e3944_s2608_s2183_r6869_r6282/
mc15_13TeV.341058.PowhegPythia8EvtGen_CT10_AZNLOCTEQ6L1_VBF900NWA_WWlvqq_15_5.merge.AOD.e3944_s2608_s2183_r6869_r6282/
mc15_13TeV.341059.PowhegPythia8EvtGen_CT10_AZNLOCTEQ6L1_VBF1000NWA_WWlvqq_15_5.merge.AOD.e3944_s2608_s2183_r6869_r6282/
mc15_13TeV.341060.PowhegPythia8EvtGen_CT10_AZNLOCTEQ6L1_VBF1400NWA_WWlvqq_15_5.merge.AOD.e3944_s2608_s2183_r6869_r6282/
mc15_13TeV.341070.PowhegPythia8EvtGen_CT10_AZNLOCTEQ6L1_VBF1800NWA_WWlvqq_15_5.merge.AOD.e3944_s2608_s2183_r6869_r6282/
mc15_13TeV.341071.PowhegPythia8EvtGen_CT10_AZNLOCTEQ6L1_VBF2200NWA_WWlvqq_15_5.merge.AOD.e3944_s2608_s2183_r6869_r6282/
mc15_13TeV.341072.PowhegPythia8EvtGen_CT10_AZNLOCTEQ6L1_VBF2600NWA_WWlvqq_15_5.merge.AOD.e3944_s2608_s2183_r6869_r6282/
mc15_13TeV.341073.PowhegPythia8EvtGen_CT10_AZNLOCTEQ6L1_VBF3000NWA_WWlvqq_15_5.merge.AOD.e3944_s2608_s2183_r6869_r6282/
mc15_13TeV.361606.PowhegPy8EG_CT10nloME_AZNLOCTEQ6L1_WWlvqq.merge.AOD.e4054_s2608_s2183_r6869_r6282/
mc15_13TeV.361609.PowhegPy8EG_CT10nloME_AZNLOCTEQ6L1_WZlvqq_mqq20.merge.AOD.e4054_s2608_s2183_r6869_r6282/
mc15_13TeV.361309.Sherpa_CT10_Wenu_Pt280_500_CVetoBVeto.merge.AOD.e4133_s2608_s2183_r6869_r6282/
mc15_13TeV.361310.Sherpa_CT10_Wenu_Pt280_500_CFilterBVeto.merge.AOD.e4133_s2608_s2183_r6869_r6282/
mc15_13TeV.361311.Sherpa_CT10_Wenu_Pt280_500_BFilter.merge.AOD.e4133_s2608_s2183_r6869_r6282/
mc15_13TeV.361312.Sherpa_CT10_Wenu_Pt500_700_CVetoBVeto.merge.AOD.e4133_s2608_s2183_r6869_r6282/
mc15_13TeV.361313.Sherpa_CT10_Wenu_Pt500_700_CFilterBVeto.merge.AOD.e4133_s2608_s2183_r6869_r6282/
mc15_13TeV.361314.Sherpa_CT10_Wenu_Pt500_700_BFilter.merge.AOD.e4133_s2608_s2183_r6869_r6282/
mc15_13TeV.361315.Sherpa_CT10_Wenu_Pt700_1000_CVetoBVeto.merge.AOD.e4133_s2608_s2183_r6869_r6282/
mc15_13TeV.361316.Sherpa_CT10_Wenu_Pt700_1000_CFilterBVeto.merge.AOD.e4133_s2608_s2183_r6869_r6282/
mc15_13TeV.361317.Sherpa_CT10_Wenu_Pt700_1000_BFilter.merge.AOD.e4133_s2608_s2183_r6869_r6282/
mc15_13TeV.361318.Sherpa_CT10_Wenu_Pt1000_2000_CVetoBVeto.merge.AOD.e4133_s2608_s2183_r6869_r6282/
mc15_13TeV.361319.Sherpa_CT10_Wenu_Pt1000_2000_CFilterBVeto.merge.AOD.e4133_s2608_s2183_r6869_r6282/
mc15_13TeV.361320.Sherpa_CT10_Wenu_Pt1000_2000_BFilter.merge.AOD.e4133_s2608_s2183_r6869_r6282/
mc15_13TeV.361321.Sherpa_CT10_Wenu_Pt2000_E_CMS_CVetoBVeto.merge.AOD.e4133_s2608_s2183_r6869_r6282/
mc15_13TeV.361322.Sherpa_CT10_Wenu_Pt2000_E_CMS_CFilterBVeto.merge.AOD.e4133_s2608_s2183_r6869_r6282/
mc15_13TeV.361323.Sherpa_CT10_Wenu_Pt2000_E_CMS_BFilter.merge.AOD.e4133_s2608_s2183_r6869_r6282/
mc15_13TeV.361330.Sherpa_CT10_Wmunu_Pt140_280_CVetoBVeto.merge.AOD.e3651_s2586_s2174_r6869_r6282/
mc15_13TeV.361331.Sherpa_CT10_Wmunu_Pt140_280_CFilterBVeto.merge.AOD.e3651_s2586_s2174_r6869_r6282/
mc15_13TeV.361332.Sherpa_CT10_Wmunu_Pt140_280_BFilter.merge.AOD.e3651_s2586_s2174_r6869_r6282/
mc15_13TeV.361333.Sherpa_CT10_Wmunu_Pt280_500_CVetoBVeto.merge.AOD.e4133_s2608_s2183_r6869_r6282/
mc15_13TeV.361334.Sherpa_CT10_Wmunu_Pt280_500_CFilterBVeto.merge.AOD.e4133_s2608_s2183_r6869_r6282/
mc15_13TeV.361335.Sherpa_CT10_Wmunu_Pt280_500_BFilter.merge.AOD.e4133_s2608_s2183_r6869_r6282/
mc15_13TeV.361336.Sherpa_CT10_Wmunu_Pt500_700_CVetoBVeto.merge.AOD.e4133_s2608_s2183_r6869_r6282/
mc15_13TeV.361337.Sherpa_CT10_Wmunu_Pt500_700_CFilterBVeto.merge.AOD.e4133_s2608_s2183_r6869_r6282/
mc15_13TeV.361338.Sherpa_CT10_Wmunu_Pt500_700_BFilter.merge.AOD.e4133_s2608_s2183_r6869_r6282/
mc15_13TeV.361339.Sherpa_CT10_Wmunu_Pt700_1000_CVetoBVeto.merge.AOD.e4133_s2608_s2183_r6869_r6282/
mc15_13TeV.361340.Sherpa_CT10_Wmunu_Pt700_1000_CFilterBVeto.merge.AOD.e4133_s2608_s2183_r6869_r6282/
mc15_13TeV.361341.Sherpa_CT10_Wmunu_Pt700_1000_BFilter.merge.AOD.e4133_s2608_s2183_r6869_r6282/
mc15_13TeV.361342.Sherpa_CT10_Wmunu_Pt1000_2000_CVetoBVeto.merge.AOD.e4133_s2608_s2183_r6869_r6282/
mc15_13TeV.361343.Sherpa_CT10_Wmunu_Pt1000_2000_CFilterBVeto.merge.AOD.e4133_s2608_s2183_r6869_r6282/
mc15_13TeV.361344.Sherpa_CT10_Wmunu_Pt1000_2000_BFilter.merge.AOD.e4133_s2608_s2183_r6869_r6282/
mc15_13TeV.361345.Sherpa_CT10_Wmunu_Pt2000_E_CMS_CVetoBVeto.merge.AOD.e4133_s2608_s2183_r6869_r6282/
mc15_13TeV.361346.Sherpa_CT10_Wmunu_Pt2000_E_CMS_CFilterBVeto.merge.AOD.e4133_s2608_s2183_r6869_r6282/
mc15_13TeV.361347.Sherpa_CT10_Wmunu_Pt2000_E_CMS_BFilter.merge.AOD.e4133_s2608_s2183_r6869_r6282/
mc15_13TeV.361354.Sherpa_CT10_Wtaunu_Pt140_280_CVetoBVeto.merge.AOD.e3733_s2608_s2183_r6869_r6282/
mc15_13TeV.361355.Sherpa_CT10_Wtaunu_Pt140_280_CFilterBVeto.merge.AOD.e3733_s2608_s2183_r6869_r6282/
mc15_13TeV.361356.Sherpa_CT10_Wtaunu_Pt140_280_BFilter.merge.AOD.e3733_s2608_s2183_r6869_r6282/
mc15_13TeV.361357.Sherpa_CT10_Wtaunu_Pt280_500_CVetoBVeto.merge.AOD.e4133_s2608_s2183_r6869_r6282/
mc15_13TeV.361358.Sherpa_CT10_Wtaunu_Pt280_500_CFilterBVeto.merge.AOD.e4133_s2608_s2183_r6869_r6282/
mc15_13TeV.361359.Sherpa_CT10_Wtaunu_Pt280_500_BFilter.merge.AOD.e4133_s2608_s2183_r6869_r6282/
mc15_13TeV.361360.Sherpa_CT10_Wtaunu_Pt500_700_CVetoBVeto.merge.AOD.e4133_s2608_s2183_r6869_r6282/
mc15_13TeV.361361.Sherpa_CT10_Wtaunu_Pt500_700_CFilterBVeto.merge.AOD.e4133_s2608_s2183_r6869_r6282/
mc15_13TeV.361362.Sherpa_CT10_Wtaunu_Pt500_700_BFilter.merge.AOD.e4133_s2608_s2183_r6869_r6282/
mc15_13TeV.361363.Sherpa_CT10_Wtaunu_Pt700_1000_CVetoBVeto.merge.AOD.e4133_s2608_s2183_r6869_r6282/
mc15_13TeV.361364.Sherpa_CT10_Wtaunu_Pt700_1000_CFilterBVeto.merge.AOD.e4133_s2608_s2183_r6869_r6282/
mc15_13TeV.361365.Sherpa_CT10_Wtaunu_Pt700_1000_BFilter.merge.AOD.e4133_s2608_s2183_r6869_r6282/
mc15_13TeV.361366.Sherpa_CT10_Wtaunu_Pt1000_2000_CVetoBVeto.merge.AOD.e4133_s2608_s2183_r6869_r6282/
mc15_13TeV.361367.Sherpa_CT10_Wtaunu_Pt1000_2000_CFilterBVeto.merge.AOD.e4133_s2608_s2183_r6869_r6282/
mc15_13TeV.361368.Sherpa_CT10_Wtaunu_Pt1000_2000_BFilter.merge.AOD.e4133_s2608_s2183_r6869_r6282/
mc15_13TeV.361369.Sherpa_CT10_Wtaunu_Pt2000_E_CMS_CVetoBVeto.merge.AOD.e4133_s2608_s2183_r6869_r6282/
mc15_13TeV.361370.Sherpa_CT10_Wtaunu_Pt2000_E_CMS_CFilterBVeto.merge.AOD.e4133_s2608_s2183_r6869_r6282/
mc15_13TeV.361371.Sherpa_CT10_Wtaunu_Pt2000_E_CMS_BFilter.merge.AOD.e4133_s2608_s2183_r6869_r6282/